CYO_Final_Project
…
Those that report happiness in their marriage are far less likely to have an affair. This makes intuitive sense.

The strongest indicator appears to be rating. To test some different prediction models I will use rating as the training variable in the following section.

knn

Begin by testing KNN model.

Affairs %>% as_tibble()

## # A tibble: 601 x 10
##    affairs gender   age yearsmarried children religiousness education occupation
##      <dbl> <fct>  <dbl>        <dbl> <fct>            <int>     <dbl>      <int>
##  1       0 male      37        10    no                   3        18          7
##  2       0 female    27         4    no                   4        14          6
##  3       0 female    32        15    yes                  1        12          1
##  4       0 male      57        15    yes                  5        18          6
##  5       0 male      22         0.75 no                   2        17          6
##  6       0 female    32         1.5  no                   2        17          5
##  7       0 female    22         0.75 no                   2        12          1
##  8       0 male      57        15    yes                  2        14          4
##  9       0 female    32        15    yes                  4        16          1
## 10       0 male      22         1.5  no                   4        14          4
## # ... with 591 more rows, and 2 more variables: rating <int>, y_n_affairs <fct>
…
